Why code?
…
ID

name

race

gender

program

program start date

Activity

## # A tibble: 1,500 x 3
##       id activity        date      
##    <int> <chr>           <date>    
##  1    76 education       2017-04-21
##  2    58 case management 2017-05-02
##  3    62 case management 2018-01-19
##  4    87 case management 2017-11-26
##  5    63 case management 2015-09-21
##  6    74 employment      2016-02-13
##  7    62 employment      2016-10-13
##  8    50 employment      2019-10-13
##  9    87 case management 2018-02-20
## 10     7 employment      2018-11-05
## #  with 1,490 more rows

Test scores

## # A tibble: 200 x 4
##       id test  test_date  score
##    <int> <chr> <date>     <dbl>
##  1    92 TABE  2018-01-01 27.6 
##  2    90 GED   2018-04-18 40.1 
##  3    52 GED   2017-09-10 34.1 
##  4    93 TABE  2019-10-31 71.1 
##  5    76 GED   2016-06-23 73.2 
##  6    23 GED   2018-12-06 38.0 
##  7    23 TABE  2015-07-12 44.0 
##  8    13 GED   2018-06-16 50.6 
##  9    19 GED   2019-08-17  3.78
## 10    68 GED   2018-06-23 17.2 
## #  with 190 more rows

Outcomes

## # A tibble: 50 x 3
##       id outcome_date outcome   
##    <int> <date>       <chr>     
##  1    24 2019-06-06   education 
##  2    65 2016-01-30   education 
##  3     4 2018-10-10   employment
##  4    73 2017-07-02   education 
##  5    36 2018-10-07   employment
##  6    99 2016-06-16   employment
##  7    63 2015-05-31   education 
##  8    63 2017-04-22   employment
##  9     8 2019-04-21   education 
## 10    10 2016-12-31   employment
## #  with 40 more rows
…
What will  ?

Look at relationships

library(tidyverse)

test_cm <- act %>%
    filter(activity == "case management") %>%
    count(id) %>%
    inner_join(test, by = "id") %>%
    filter(test == "GED")

test_cm

## # A tibble: 98 x 5
##       id     n test  test_date  score
##    <int> <int> <chr> <date>     <dbl>
##  1     2     3 GED   2019-10-21 40.8 
##  2     3     7 GED   2019-05-17 97.4 
##  3     6     8 GED   2016-12-18 88.6 
##  4     7     6 GED   2017-06-21 52.0 
##  5     8     4 GED   2015-10-18 60.9 
##  6     8     4 GED   2015-11-10 41.3 
##  7     9     4 GED   2019-07-07  5.92
##  8     9     4 GED   2016-02-24 66.5 
##  9    10     5 GED   2019-08-05 56.5 
## 10    11     4 GED   2015-04-11 60.4 
## #  with 88 more rows
…
